[
    {
        "id": 1,
        "uniqueIdentifier": "e373b770-13d6-4f4b-915c-bb024087851b",
        "name": "Facebook",
        "legacyName": "Google",
        "yearEstablished": "1957",
        "streetAddress": "2045 San Diego Blvd",
        "city": "Mountain View",
        "state": "CO",
        "accountManager": "Netflix Amazon",
        "email": "Microsoft1@Netflix.com"
    },
    {
        "id": 2,
        "uniqueIdentifier": "31ec2623-284f-433e-843d-fc10cc32ecd4",
        "name": "Amazon",
        "legacyName": "Netflix",
        "yearEstablished": "1965",
        "streetAddress": "6916 Mountain View Blvd",
        "city": "Santa Clara",
        "state": "WA",
        "accountManager": "Facebook Amazon",
        "email": "Netflix2@Facebook.com"
    },
    {
        "id": 3,
        "uniqueIdentifier": "55a0f0f0-7071-462e-b99f-2d7673f8eaa0",
        "name": "Netflix",
        "legacyName": "Netflix",
        "yearEstablished": "1915",
        "streetAddress": "3541 Austin Rd",
        "city": "San Diego",
        "state": "CO",
        "accountManager": "Microsoft Facebook",
        "email": "Facebook3@Microsoft.com"
    }
]